{"href": "https://api.spotify.com/v1/users/aldrichmangune/playlists?offset=0&limit=20", "items": [{"collaborative": false, "description": "", "external_urls": {"spotify": "https://open.spotify.com/playlist/1H163taKSeBERTtCu3R7bp"}, "href": "https://api.spotify.com/v1/playlists/1H163taKSeBERTtCu3R7bp", "id": "1H163taKSeBERTtCu3R7bp", "images": [{"height": null, "url": "https://i.scdn.co/image/ab67706c0000bebb533c42e3eaeb6a32f61e47fd", "width": null}], "name": "porter robinson : cherished music", "owner": {"display_name": "Porter Robinson", "external_urls": {"spotify": "https://open.spotify.com/user/porterrobinson"}, "href": "https://api.spotify.com/v1/users/porterrobinson", "id": "porterrobinson", "type": "user", "uri": "spotify:user:porterrobinson"}, "primary_color": null, "public": true, "snapshot_id": "NDk4LDg2YjU1NDY3YzZjODFiNDM1YTYzYjliYTE3MjI2YTgxZTk1Yzk5OGU=", "tracks": {"href": "https://api.spotify.com/v1/playlists/1H163taKSeBERTtCu3R7bp/tracks", "total": 64}, "type": "playlist", "uri": "spotify:playlist:1H163taKSeBERTtCu3R7bp"}, {"collaborative": false, "description": "", "external_urls": {"spotify": "https://open.spotify.com/playlist/5iObdXhGJze6MGKB3jH8Uf"}, "href": "https://api.spotify.com/v1/playlists/5iObdXhGJze6MGKB3jH8Uf", "id": "5iObdXhGJze6MGKB3jH8Uf", "images": [{"height": 640, "url": "https://mosaic.scdn.co/640/ab67616d0000b2731ff81954212af148dda4719dab67616d0000b27324da817518eae4ddab8d2a3bab67616d0000b273941797a25ce7dbe714943dbcab67616d0000b273d21fb9c25a76a7833c54a121", "width": 640}, {"height": 300, "url": "https://mosaic.scdn.co/300/ab67616d0000b2731ff81954212af148dda4719dab67616d0000b27324da817518eae4ddab8d2a3bab67616d0000b273941797a25ce7dbe714943dbcab67616d0000b273d21fb9c25a76a7833c54a121", "width": 300}, {"height": 60, "url": "https://mosaic.scdn.co/60/ab67616d0000b2731ff81954212af148dda4719dab67616d0000b27324da817518eae4ddab8d2a3bab67616d0000b273941797a25ce7dbe714943dbcab67616d0000b273d21fb9c25a76a7833c54a121", "width": 60}], "name": "Kitchen Song \u2013 Ayane Yamazaki", "owner": {"display_name": "Aldrich Mangune", "external_urls": {"spotify": "https://open.spotify.com/user/aldrichmangune"}, "href": "https://api.spotify.com/v1/users/aldrichmangune", "id": "aldrichmangune", "type": "user", "uri": "spotify:user:aldrichmangune"}, "primary_color": null, "public": true, "snapshot_id": "NSxhZjkxYjAwZjVjOTZlZDI2YjJmYjUwMjVlMDJjNTlmMzUzYTNkOGVh", "tracks": {"href": "https://api.spotify.com/v1/playlists/5iObdXhGJze6MGKB3jH8Uf/tracks", "total": 4}, "type": "playlist", "uri": "spotify:playlist:5iObdXhGJze6MGKB3jH8Uf"}, {"collaborative": false, "description": "", "external_urls": {"spotify": "https://open.spotify.com/playlist/67nMPP3sSxHSN5diysBEDX"}, "href": "https://api.spotify.com/v1/playlists/67nMPP3sSxHSN5diysBEDX", "id": "67nMPP3sSxHSN5diysBEDX", "images": [{"height": 640, "url": "https://mosaic.scdn.co/640/ab67616d0000b2731ddda99dde29d44d41898f8fab67616d0000b2735a5db281062dde860242dfe1ab67616d0000b2736b7517a142479ef7e6be12d4ab67616d0000b27392cb28b37837c67dffe602f9", "width": 640}, {"height": 300, "url": "https://mosaic.scdn.co/300/ab67616d0000b2731ddda99dde29d44d41898f8fab67616d0000b2735a5db281062dde860242dfe1ab67616d0000b2736b7517a142479ef7e6be12d4ab67616d0000b27392cb28b37837c67dffe602f9", "width": 300}, {"height": 60, "url": "https://mosaic.scdn.co/60/ab67616d0000b2731ddda99dde29d44d41898f8fab67616d0000b2735a5db281062dde860242dfe1ab67616d0000b2736b7517a142479ef7e6be12d4ab67616d0000b27392cb28b37837c67dffe602f9", "width": 60}], "name": "\\\\summ-twi", "owner": {"display_name": "Aldrich Mangune", "external_urls": {"spotify": "https://open.spotify.com/user/aldrichmangune"}, "href": "https://api.spotify.com/v1/users/aldrichmangune", "id": "aldrichmangune", "type": "user", "uri": "spotify:user:aldrichmangune"}, "primary_color": null, "public": true, "snapshot_id": "ODQsN2EyZGIxYzJkODZlNzY1NzdhNjUxNDc3NzA4MDA2MGE5MDY4MmMzMQ==", "tracks": {"href": "https://api.spotify.com/v1/playlists/67nMPP3sSxHSN5diysBEDX/tracks", "total": 83}, "type": "playlist", "uri": "spotify:playlist:67nMPP3sSxHSN5diysBEDX"}, {"collaborative": false, "description": "", "external_urls": {"spotify": "https://open.spotify.com/playlist/5Mr5CevCpeCuIHHPkArYnj"}, "href": "https://api.spotify.com/v1/playlists/5Mr5CevCpeCuIHHPkArYnj", "id": "5Mr5CevCpeCuIHHPkArYnj", "images": [{"height": 640, "url": "https://mosaic.scdn.co/640/ab67616d0000b27320dd1c267864298624b7db6eab67616d0000b273c2d4257fa02c87a763d4f2afab67616d0000b273cb41a608cca9e313dd599d68ab67616d0000b273e83f22ab6f3cd3f4db9c8025", "width": 640}, {"height": 300, "url": "https://mosaic.scdn.co/300/ab67616d0000b27320dd1c267864298624b7db6eab67616d0000b273c2d4257fa02c87a763d4f2afab67616d0000b273cb41a608cca9e313dd599d68ab67616d0000b273e83f22ab6f3cd3f4db9c8025", "width": 300}, {"height": 60, "url": "https://mosaic.scdn.co/60/ab67616d0000b27320dd1c267864298624b7db6eab67616d0000b273c2d4257fa02c87a763d4f2afab67616d0000b273cb41a608cca9e313dd599d68ab67616d0000b273e83f22ab6f3cd3f4db9c8025", "width": 60}], "name": "\\\\Go", "owner": {"display_name": "Aldrich Mangune", "external_urls": {"spotify": "https://open.spotify.com/user/aldrichmangune"}, "href": "https://api.spotify.com/v1/users/aldrichmangune", "id": "aldrichmangune", "type": "user", "uri": "spotify:user:aldrichmangune"}, "primary_color": null, "public": true, "snapshot_id": "MzMsOGUzMTZiZDBlMjE4NWY0ZGM0MTMzMDNmZDg2MjU2N2MxNmUzZjJmYQ==", "tracks": {"href": "https://api.spotify.com/v1/playlists/5Mr5CevCpeCuIHHPkArYnj/tracks", "total": 32}, "type": "playlist", "uri": "spotify:playlist:5Mr5CevCpeCuIHHPkArYnj"}, {"collaborative": false, "description": "", "external_urls": {"spotify": "https://open.spotify.com/playlist/6aZfTCVuoddvW5vLeRnZgy"}, "href": "https://api.spotify.com/v1/playlists/6aZfTCVuoddvW5vLeRnZgy", "id": "6aZfTCVuoddvW5vLeRnZgy", "images": [{"height": 640, "url": "https://mosaic.scdn.co/640/ab67616d0000b2734fb043195e8d07e72edc7226ab67616d0000b27384c735ddad34a21eb9adebe7ab67616d0000b273ae421754a904f1a5178ebb33ab67616d0000b273e52a59a28efa4773dd2bfe1b", "width": 640}, {"height": 300, "url": "https://mosaic.scdn.co/300/ab67616d0000b2734fb043195e8d07e72edc7226ab67616d0000b27384c735ddad34a21eb9adebe7ab67616d0000b273ae421754a904f1a5178ebb33ab67616d0000b273e52a59a28efa4773dd2bfe1b", "width": 300}, {"height": 60, "url": "https://mosaic.scdn.co/60/ab67616d0000b2734fb043195e8d07e72edc7226ab67616d0000b27384c735ddad34a21eb9adebe7ab67616d0000b273ae421754a904f1a5178ebb33ab67616d0000b273e52a59a28efa4773dd2bfe1b", "width": 60}], "name": "\\\\Back", "owner": {"display_name": "Aldrich Mangune", "external_urls": {"spotify": "https://open.spotify.com/user/aldrichmangune"}, "href": "https://api.spotify.com/v1/users/aldrichmangune", "id": "aldrichmangune", "type": "user", "uri": "spotify:user:aldrichmangune"}, "primary_color": null, "public": false, "snapshot_id": "MjMsZTkzMzBlMTQ5OTRjMGYzMTM0NzBlZTQzYjBlNzc0YzZiOTI5YTViNw==", "tracks": {"href": "https://api.spotify.com/v1/playlists/6aZfTCVuoddvW5vLeRnZgy/tracks", "total": 21}, "type": "playlist", "uri": "spotify:playlist:6aZfTCVuoddvW5vLeRnZgy"}, {"collaborative": false, "description": "", "external_urls": {"spotify": "https://open.spotify.com/playlist/2y0DhPqbsG3LsQ9YUYPyxu"}, "href": "https://api.spotify.com/v1/playlists/2y0DhPqbsG3LsQ9YUYPyxu", "id": "2y0DhPqbsG3LsQ9YUYPyxu", "images": [{"height": 640, "url": "https://mosaic.scdn.co/640/ab67616d0000b27359f1346e76a4511683fe24d6ab67616d0000b2735d8b40b3b5a61b3d8f5f8c54ab67616d0000b273942deb56f668e7346f6d4331ab67616d0000b273f683c73f293ef356aec573bb", "width": 640}, {"height": 300, "url": "https://mosaic.scdn.co/300/ab67616d0000b27359f1346e76a4511683fe24d6ab67616d0000b2735d8b40b3b5a61b3d8f5f8c54ab67616d0000b273942deb56f668e7346f6d4331ab67616d0000b273f683c73f293ef356aec573bb", "width": 300}, {"height": 60, "url": "https://mosaic.scdn.co/60/ab67616d0000b27359f1346e76a4511683fe24d6ab67616d0000b2735d8b40b3b5a61b3d8f5f8c54ab67616d0000b273942deb56f668e7346f6d4331ab67616d0000b273f683c73f293ef356aec573bb", "width": 60}], "name": "U", "owner": {"display_name": "Aldrich Mangune", "external_urls": {"spotify": "https://open.spotify.com/user/aldrichmangune"}, "href": "https://api.spotify.com/v1/users/aldrichmangune", "id": "aldrichmangune", "type": "user", "uri": "spotify:user:aldrichmangune"}, "primary_color": null, "public": true, "snapshot_id": "MjAsNzY5OTQxMDg3NTAxODM3ZTgxYWFiODY4YzE0YzY3YjdlYzc5YmFlYg==", "tracks": {"href": "https://api.spotify.com/v1/playlists/2y0DhPqbsG3LsQ9YUYPyxu/tracks", "total": 19}, "type": "playlist", "uri": "spotify:playlist:2y0DhPqbsG3LsQ9YUYPyxu"}, {"collaborative": false, "description": "", "external_urls": {"spotify": "https://open.spotify.com/playlist/78BHj4P1WE00Q1aDuos3FZ"}, "href": "https://api.spotify.com/v1/playlists/78BHj4P1WE00Q1aDuos3FZ", "id": "78BHj4P1WE00Q1aDuos3FZ", "images": [{"height": 640, "url": "https://mosaic.scdn.co/640/ab67616d0000b273362ac7cb4dddfe003ccfc79dab67616d0000b2733dabdcb0957daeb8a4280940ab67616d0000b273977b0c4c69cf4e6d37724c72ab67616d0000b273b033087945225272e885808c", "width": 640}, {"height": 300, "url": "https://mosaic.scdn.co/300/ab67616d0000b273362ac7cb4dddfe003ccfc79dab67616d0000b2733dabdcb0957daeb8a4280940ab67616d0000b273977b0c4c69cf4e6d37724c72ab67616d0000b273b033087945225272e885808c", "width": 300}, {"height": 60, "url": "https://mosaic.scdn.co/60/ab67616d0000b273362ac7cb4dddfe003ccfc79dab67616d0000b2733dabdcb0957daeb8a4280940ab67616d0000b273977b0c4c69cf4e6d37724c72ab67616d0000b273b033087945225272e885808c", "width": 60}], "name": "\\\\Scene", "owner": {"display_name": "Aldrich Mangune", "external_urls": {"spotify": "https://open.spotify.com/user/aldrichmangune"}, "href": "https://api.spotify.com/v1/users/aldrichmangune", "id": "aldrichmangune", "type": "user", "uri": "spotify:user:aldrichmangune"}, "primary_color": null, "public": true, "snapshot_id": "MTcsOTA0NTg5NWEzNGY5NjAyYjkxZDc0NGQ1YjM0ODBlMWM3NzQxNmY3NA==", "tracks": {"href": "https://api.spotify.com/v1/playlists/78BHj4P1WE00Q1aDuos3FZ/tracks", "total": 15}, "type": "playlist", "uri": "spotify:playlist:78BHj4P1WE00Q1aDuos3FZ"}, {"collaborative": false, "description": "", "external_urls": {"spotify": "https://open.spotify.com/playlist/1g2N1WpNu7YKOwFgzQxNGF"}, "href": "https://api.spotify.com/v1/playlists/1g2N1WpNu7YKOwFgzQxNGF", "id": "1g2N1WpNu7YKOwFgzQxNGF", "images": [{"height": 640, "url": "https://mosaic.scdn.co/640/ab67616d0000b27308ce9e70a4961533cff06ea8ab67616d0000b273731fd272141b881530e02452ab67616d0000b27396c3f7e7196de89095817841ab67616d0000b273a31f73dd2f3c4ffc06f6cbd3", "width": 640}, {"height": 300, "url": "https://mosaic.scdn.co/300/ab67616d0000b27308ce9e70a4961533cff06ea8ab67616d0000b273731fd272141b881530e02452ab67616d0000b27396c3f7e7196de89095817841ab67616d0000b273a31f73dd2f3c4ffc06f6cbd3", "width": 300}, {"height": 60, "url": "https://mosaic.scdn.co/60/ab67616d0000b27308ce9e70a4961533cff06ea8ab67616d0000b273731fd272141b881530e02452ab67616d0000b27396c3f7e7196de89095817841ab67616d0000b273a31f73dd2f3c4ffc06f6cbd3", "width": 60}], "name": "\\\\summ", "owner": {"display_name": "Aldrich Mangune", "external_urls": {"spotify": "https://open.spotify.com/user/aldrichmangune"}, "href": "https://api.spotify.com/v1/users/aldrichmangune", "id": "aldrichmangune", "type": "user", "uri": "spotify:user:aldrichmangune"}, "primary_color": null, "public": true, "snapshot_id": "MTgwLDJhODkxM2Q3ZTllZDkzOWIyMDhiN2E1YzAyZmZjM2ViMWM3MDBmYjQ=", "tracks": {"href": "https://api.spotify.com/v1/playlists/1g2N1WpNu7YKOwFgzQxNGF/tracks", "total": 179}, "type": "playlist", "uri": "spotify:playlist:1g2N1WpNu7YKOwFgzQxNGF"}, {"collaborative": false, "description": "", "external_urls": {"spotify": "https://open.spotify.com/playlist/5ayacnlrEG6bOGKWd9iMLb"}, "href": "https://api.spotify.com/v1/playlists/5ayacnlrEG6bOGKWd9iMLb", "id": "5ayacnlrEG6bOGKWd9iMLb", "images": [{"height": 640, "url": "https://i.scdn.co/image/ab67616d0000b27321f740e0357cdc35e39ad088", "width": 640}], "name": "hm", "owner": {"display_name": "Aldrich Mangune", "external_urls": {"spotify": "https://open.spotify.com/user/aldrichmangune"}, "href": "https://api.spotify.com/v1/users/aldrichmangune", "id": "aldrichmangune", "type": "user", "uri": "spotify:user:aldrichmangune"}, "primary_color": null, "public": false, "snapshot_id": "Miw5YjlkNDlhNTI3ZjU0NTgxZjk4MDI2NThhYmU1ZmU4OTM1MDI5YTEx", "tracks": {"href": "https://api.spotify.com/v1/playlists/5ayacnlrEG6bOGKWd9iMLb/tracks", "total": 1}, "type": "playlist", "uri": "spotify:playlist:5ayacnlrEG6bOGKWd9iMLb"}, {"collaborative": false, "description": "", "external_urls": {"spotify": "https://open.spotify.com/playlist/2OcBt88whqP9nUJBrgcbd2"}, "href": "https://api.spotify.com/v1/playlists/2OcBt88whqP9nUJBrgcbd2", "id": "2OcBt88whqP9nUJBrgcbd2", "images": [{"height": 640, "url": "https://mosaic.scdn.co/640/ab67616d0000b2734e9bde65491448f267218623ab67616d0000b2735f51b707bf6d726ce2e47fcaab67616d0000b27367b1849323bfad9a1b40656fab67616d0000b27379f68438c61b2d42a4ec3435", "width": 640}, {"height": 300, "url": "https://mosaic.scdn.co/300/ab67616d0000b2734e9bde65491448f267218623ab67616d0000b2735f51b707bf6d726ce2e47fcaab67616d0000b27367b1849323bfad9a1b40656fab67616d0000b27379f68438c61b2d42a4ec3435", "width": 300}, {"height": 60, "url": "https://mosaic.scdn.co/60/ab67616d0000b2734e9bde65491448f267218623ab67616d0000b2735f51b707bf6d726ce2e47fcaab67616d0000b27367b1849323bfad9a1b40656fab67616d0000b27379f68438c61b2d42a4ec3435", "width": 60}], "name": "Unravel", "owner": {"display_name": "Aldrich Mangune", "external_urls": {"spotify": "https://open.spotify.com/user/aldrichmangune"}, "href": "https://api.spotify.com/v1/users/aldrichmangune", "id": "aldrichmangune", "type": "user", "uri": "spotify:user:aldrichmangune"}, "primary_color": null, "public": true, "snapshot_id": "Niw0MGQwYTIyZGJjMGExZjZhNTRmNzNkOGY3ZGJmMmI3ZmUxNmVkNmIy", "tracks": {"href": "https://api.spotify.com/v1/playlists/2OcBt88whqP9nUJBrgcbd2/tracks", "total": 5}, "type": "playlist", "uri": "spotify:playlist:2OcBt88whqP9nUJBrgcbd2"}, {"collaborative": false, "description": "", "external_urls": {"spotify": "https://open.spotify.com/playlist/52FvG7qhp3u8l9ugDAgE2g"}, "href": "https://api.spotify.com/v1/playlists/52FvG7qhp3u8l9ugDAgE2g", "id": "52FvG7qhp3u8l9ugDAgE2g", "images": [{"height": 640, "url": "https://mosaic.scdn.co/640/ab67616d0000b27309334dd03935adc316f635e0ab67616d0000b27320639b09fb1cf600badbcd0dab67616d0000b2732b674491e363e44f14d10f43ab67616d0000b273c27e997313531dbc7b01b247", "width": 640}, {"height": 300, "url": "https://mosaic.scdn.co/300/ab67616d0000b27309334dd03935adc316f635e0ab67616d0000b27320639b09fb1cf600badbcd0dab67616d0000b2732b674491e363e44f14d10f43ab67616d0000b273c27e997313531dbc7b01b247", "width": 300}, {"height": 60, "url": "https://mosaic.scdn.co/60/ab67616d0000b27309334dd03935adc316f635e0ab67616d0000b27320639b09fb1cf600badbcd0dab67616d0000b2732b674491e363e44f14d10f43ab67616d0000b273c27e997313531dbc7b01b247", "width": 60}], "name": "\\\\Start", "owner": {"display_name": "Aldrich Mangune", "external_urls": {"spotify": "https://open.spotify.com/user/aldrichmangune"}, "href": "https://api.spotify.com/v1/users/aldrichmangune", "id": "aldrichmangune", "type": "user", "uri": "spotify:user:aldrichmangune"}, "primary_color": null, "public": true, "snapshot_id": "MTgsZWNiOThiMGFkNGI4OWVjMDYyNWJiYjZlZWZmOTg0ZWU0OTM3Y2NkOQ==", "tracks": {"href": "https://api.spotify.com/v1/playlists/52FvG7qhp3u8l9ugDAgE2g/tracks", "total": 13}, "type": "playlist", "uri": "spotify:playlist:52FvG7qhp3u8l9ugDAgE2g"}, {"collaborative": false, "description": "", "external_urls": {"spotify": "https://open.spotify.com/playlist/6ZvjTJLkLN2HGUDtc6IvWD"}, "href": "https://api.spotify.com/v1/playlists/6ZvjTJLkLN2HGUDtc6IvWD", "id": "6ZvjTJLkLN2HGUDtc6IvWD", "images": [{"height": 640, "url": "https://mosaic.scdn.co/640/ab67616d0000b27330655e8c213d5b23b750879cab67616d0000b27359e14c17af464999b526cab4ab67616d0000b2735a0ae4e6d5794ba9642e7270ab67616d0000b273752b151dfca8e19f3e78472b", "width": 640}, {"height": 300, "url": "https://mosaic.scdn.co/300/ab67616d0000b27330655e8c213d5b23b750879cab67616d0000b27359e14c17af464999b526cab4ab67616d0000b2735a0ae4e6d5794ba9642e7270ab67616d0000b273752b151dfca8e19f3e78472b", "width": 300}, {"height": 60, "url": "https://mosaic.scdn.co/60/ab67616d0000b27330655e8c213d5b23b750879cab67616d0000b27359e14c17af464999b526cab4ab67616d0000b2735a0ae4e6d5794ba9642e7270ab67616d0000b273752b151dfca8e19f3e78472b", "width": 60}], "name": "\\\\Away", "owner": {"display_name": "Aldrich Mangune", "external_urls": {"spotify": "https://open.spotify.com/user/aldrichmangune"}, "href": "https://api.spotify.com/v1/users/aldrichmangune", "id": "aldrichmangune", "type": "user", "uri": "spotify:user:aldrichmangune"}, "primary_color": null, "public": true, "snapshot_id": "NTAsNzJmMGYxMWQxOWU3NzkyZmEwMjExOWI5MmQ3Y2MwMWJlMzE0ZDYwZg==", "tracks": {"href": "https://api.spotify.com/v1/playlists/6ZvjTJLkLN2HGUDtc6IvWD/tracks", "total": 47}, "type": "playlist", "uri": "spotify:playlist:6ZvjTJLkLN2HGUDtc6IvWD"}, {"collaborative": false, "description": "", "external_urls": {"spotify": "https://open.spotify.com/playlist/320R0xaCFXoDJLmNZjR4sc"}, "href": "https://api.spotify.com/v1/playlists/320R0xaCFXoDJLmNZjR4sc", "id": "320R0xaCFXoDJLmNZjR4sc", "images": [{"height": 640, "url": "https://mosaic.scdn.co/640/ab67616d0000b2733b7948c8c204429aa6b298a5ab67616d0000b27344efd7fe59657dc005c10d28ab67616d0000b273eac7131ea6a8a36941617d49ab67616d0000b273f36d672b5f1439115471f33d", "width": 640}, {"height": 300, "url": "https://mosaic.scdn.co/300/ab67616d0000b2733b7948c8c204429aa6b298a5ab67616d0000b27344efd7fe59657dc005c10d28ab67616d0000b273eac7131ea6a8a36941617d49ab67616d0000b273f36d672b5f1439115471f33d", "width": 300}, {"height": 60, "url": "https://mosaic.scdn.co/60/ab67616d0000b2733b7948c8c204429aa6b298a5ab67616d0000b27344efd7fe59657dc005c10d28ab67616d0000b273eac7131ea6a8a36941617d49ab67616d0000b273f36d672b5f1439115471f33d", "width": 60}], "name": "\\\\win", "owner": {"display_name": "Aldrich Mangune", "external_urls": {"spotify": "https://open.spotify.com/user/aldrichmangune"}, "href": "https://api.spotify.com/v1/users/aldrichmangune", "id": "aldrichmangune", "type": "user", "uri": "spotify:user:aldrichmangune"}, "primary_color": null, "public": true, "snapshot_id": "MTg1LDA3Yjk3NWUyOGE3ZTYxMWFhNjZjZDMzYTExYjAxYTZlYzdkMDlkN2U=", "tracks": {"href": "https://api.spotify.com/v1/playlists/320R0xaCFXoDJLmNZjR4sc/tracks", "total": 182}, "type": "playlist", "uri": "spotify:playlist:320R0xaCFXoDJLmNZjR4sc"}, {"collaborative": false, "description": "", "external_urls": {"spotify": "https://open.spotify.com/playlist/2OQdfalRzeMri8FA7Y2SG6"}, "href": "https://api.spotify.com/v1/playlists/2OQdfalRzeMri8FA7Y2SG6", "id": "2OQdfalRzeMri8FA7Y2SG6", "images": [{"height": 640, "url": "https://mosaic.scdn.co/640/ab67616d0000b2731ae8e1710d890d564306ecc8ab67616d0000b2734e95ca83aaa4be6dedb91d95ab67616d0000b273686315172c891d15f9ed3c49ab67616d0000b273ff128794b7e00790e167800b", "width": 640}, {"height": 300, "url": "https://mosaic.scdn.co/300/ab67616d0000b2731ae8e1710d890d564306ecc8ab67616d0000b2734e95ca83aaa4be6dedb91d95ab67616d0000b273686315172c891d15f9ed3c49ab67616d0000b273ff128794b7e00790e167800b", "width": 300}, {"height": 60, "url": "https://mosaic.scdn.co/60/ab67616d0000b2731ae8e1710d890d564306ecc8ab67616d0000b2734e95ca83aaa4be6dedb91d95ab67616d0000b273686315172c891d15f9ed3c49ab67616d0000b273ff128794b7e00790e167800b", "width": 60}], "name": "//time", "owner": {"display_name": "Aldrich Mangune", "external_urls": {"spotify": "https://open.spotify.com/user/aldrichmangune"}, "href": "https://api.spotify.com/v1/users/aldrichmangune", "id": "aldrichmangune", "type": "user", "uri": "spotify:user:aldrichmangune"}, "primary_color": null, "public": true, "snapshot_id": "NyxiOGQ4MjkyYTIyNDFhZWI2OGYzZTA2YTQyMzI0N2Q0MmFjZjg1Njkx", "tracks": {"href": "https://api.spotify.com/v1/playlists/2OQdfalRzeMri8FA7Y2SG6/tracks", "total": 6}, "type": "playlist", "uri": "spotify:playlist:2OQdfalRzeMri8FA7Y2SG6"}, {"collaborative": false, "description": "", "external_urls": {"spotify": "https://open.spotify.com/playlist/2kCqgxlvTtCoB7wwdYI4Eb"}, "href": "https://api.spotify.com/v1/playlists/2kCqgxlvTtCoB7wwdYI4Eb", "id": "2kCqgxlvTtCoB7wwdYI4Eb", "images": [{"height": 640, "url": "https://mosaic.scdn.co/640/ab67616d0000b2734aedbebc17bc6ebccad220e9ab67616d0000b2739b3242f1371fca942cf8057eab67616d0000b273acc214fcb512945b00f64253ab67616d0000b273c3c387d65d710a1909ad410d", "width": 640}, {"height": 300, "url": "https://mosaic.scdn.co/300/ab67616d0000b2734aedbebc17bc6ebccad220e9ab67616d0000b2739b3242f1371fca942cf8057eab67616d0000b273acc214fcb512945b00f64253ab67616d0000b273c3c387d65d710a1909ad410d", "width": 300}, {"height": 60, "url": "https://mosaic.scdn.co/60/ab67616d0000b2734aedbebc17bc6ebccad220e9ab67616d0000b2739b3242f1371fca942cf8057eab67616d0000b273acc214fcb512945b00f64253ab67616d0000b273c3c387d65d710a1909ad410d", "width": 60}], "name": "\\\\wee", "owner": {"display_name": "Aldrich Mangune", "external_urls": {"spotify": "https://open.spotify.com/user/aldrichmangune"}, "href": "https://api.spotify.com/v1/users/aldrichmangune", "id": "aldrichmangune", "type": "user", "uri": "spotify:user:aldrichmangune"}, "primary_color": null, "public": true, "snapshot_id": "NTcsMzJmYmI4YzQ2MjUzZGNlM2Q1NjhlZmY3OTNiOTZlNWU1ODdkMDQ2NQ==", "tracks": {"href": "https://api.spotify.com/v1/playlists/2kCqgxlvTtCoB7wwdYI4Eb/tracks", "total": 52}, "type": "playlist", "uri": "spotify:playlist:2kCqgxlvTtCoB7wwdYI4Eb"}, {"collaborative": false, "description": "", "external_urls": {"spotify": "https://open.spotify.com/playlist/5FAq3SddiFP8GtvbV6zWO5"}, "href": "https://api.spotify.com/v1/playlists/5FAq3SddiFP8GtvbV6zWO5", "id": "5FAq3SddiFP8GtvbV6zWO5", "images": [{"height": 640, "url": "https://mosaic.scdn.co/640/ab67616d0000b27307e2ac538f8856e8f91419c0ab67616d0000b273addef7fad07f17acdf7d6b98ab67616d0000b273d9d96c4e842930a7022f7447ab67616d0000b273e135fe5ff9c324a424de9e4a", "width": 640}, {"height": 300, "url": "https://mosaic.scdn.co/300/ab67616d0000b27307e2ac538f8856e8f91419c0ab67616d0000b273addef7fad07f17acdf7d6b98ab67616d0000b273d9d96c4e842930a7022f7447ab67616d0000b273e135fe5ff9c324a424de9e4a", "width": 300}, {"height": 60, "url": "https://mosaic.scdn.co/60/ab67616d0000b27307e2ac538f8856e8f91419c0ab67616d0000b273addef7fad07f17acdf7d6b98ab67616d0000b273d9d96c4e842930a7022f7447ab67616d0000b273e135fe5ff9c324a424de9e4a", "width": 60}], "name": "its just a phase", "owner": {"display_name": "Aldrich Mangune", "external_urls": {"spotify": "https://open.spotify.com/user/aldrichmangune"}, "href": "https://api.spotify.com/v1/users/aldrichmangune", "id": "aldrichmangune", "type": "user", "uri": "spotify:user:aldrichmangune"}, "primary_color": null, "public": true, "snapshot_id": "NDgsNWVhYWExYzRhMTEwMTllMmNhMzRmZjI3NzAwMTlkZDkxMGViN2E1Zg==", "tracks": {"href": "https://api.spotify.com/v1/playlists/5FAq3SddiFP8GtvbV6zWO5/tracks", "total": 47}, "type": "playlist", "uri": "spotify:playlist:5FAq3SddiFP8GtvbV6zWO5"}, {"collaborative": false, "description": "", "external_urls": {"spotify": "https://open.spotify.com/playlist/7uolzghxz5f53qijaqounW"}, "href": "https://api.spotify.com/v1/playlists/7uolzghxz5f53qijaqounW", "id": "7uolzghxz5f53qijaqounW", "images": [{"height": 640, "url": "https://mosaic.scdn.co/640/ab67616d0000b2732e3fb4fbd61f0f708d694492ab67616d0000b2733ab4ba34233587f22106321cab67616d0000b2736d20e44c5ffbc4af77cbac11ab67616d0000b2737cbe15ce70903529d1742486", "width": 640}, {"height": 300, "url": "https://mosaic.scdn.co/300/ab67616d0000b2732e3fb4fbd61f0f708d694492ab67616d0000b2733ab4ba34233587f22106321cab67616d0000b2736d20e44c5ffbc4af77cbac11ab67616d0000b2737cbe15ce70903529d1742486", "width": 300}, {"height": 60, "url": "https://mosaic.scdn.co/60/ab67616d0000b2732e3fb4fbd61f0f708d694492ab67616d0000b2733ab4ba34233587f22106321cab67616d0000b2736d20e44c5ffbc4af77cbac11ab67616d0000b2737cbe15ce70903529d1742486", "width": 60}], "name": "//if-ol", "owner": {"display_name": "Aldrich Mangune", "external_urls": {"spotify": "https://open.spotify.com/user/aldrichmangune"}, "href": "https://api.spotify.com/v1/users/aldrichmangune", "id": "aldrichmangune", "type": "user", "uri": "spotify:user:aldrichmangune"}, "primary_color": null, "public": true, "snapshot_id": "MTgsMDMwNzZhOTBiNjQzZTAzNDg4NGE0ZjI2ZDA2ZWUwMDQ0N2I4M2ZlYQ==", "tracks": {"href": "https://api.spotify.com/v1/playlists/7uolzghxz5f53qijaqounW/tracks", "total": 17}, "type": "playlist", "uri": "spotify:playlist:7uolzghxz5f53qijaqounW"}, {"collaborative": false, "description": "", "external_urls": {"spotify": "https://open.spotify.com/playlist/2nNqfwAeKYOuDVn2rD2pvc"}, "href": "https://api.spotify.com/v1/playlists/2nNqfwAeKYOuDVn2rD2pvc", "id": "2nNqfwAeKYOuDVn2rD2pvc", "images": [{"height": 640, "url": "https://mosaic.scdn.co/640/ab67616d0000b2738808f75384b98f5432c16012ab67616d0000b273b789556bd851cb23c28ee7f7ab67616d0000b273ba47e5e0495ae21d6197d2eaab67616d0000b273de1db767fa00a61ea3bab7f6", "width": 640}, {"height": 300, "url": "https://mosaic.scdn.co/300/ab67616d0000b2738808f75384b98f5432c16012ab67616d0000b273b789556bd851cb23c28ee7f7ab67616d0000b273ba47e5e0495ae21d6197d2eaab67616d0000b273de1db767fa00a61ea3bab7f6", "width": 300}, {"height": 60, "url": "https://mosaic.scdn.co/60/ab67616d0000b2738808f75384b98f5432c16012ab67616d0000b273b789556bd851cb23c28ee7f7ab67616d0000b273ba47e5e0495ae21d6197d2eaab67616d0000b273de1db767fa00a61ea3bab7f6", "width": 60}], "name": "\\\\sum 7E3", "owner": {"display_name": "Aldrich Mangune", "external_urls": {"spotify": "https://open.spotify.com/user/aldrichmangune"}, "href": "https://api.spotify.com/v1/users/aldrichmangune", "id": "aldrichmangune", "type": "user", "uri": "spotify:user:aldrichmangune"}, "primary_color": null, "public": true, "snapshot_id": "MTcyLGYyM2U5NzRjNTNlOTIyNTUyZWU4NjkxYzFmMWFhZDk2ZTAyOTQ3Mzc=", "tracks": {"href": "https://api.spotify.com/v1/playlists/2nNqfwAeKYOuDVn2rD2pvc/tracks", "total": 170}, "type": "playlist", "uri": "spotify:playlist:2nNqfwAeKYOuDVn2rD2pvc"}, {"collaborative": false, "description": "", "external_urls": {"spotify": "https://open.spotify.com/playlist/19j28i8jayqpHPR7IPfaQb"}, "href": "https://api.spotify.com/v1/playlists/19j28i8jayqpHPR7IPfaQb", "id": "19j28i8jayqpHPR7IPfaQb", "images": [{"height": 640, "url": "https://mosaic.scdn.co/640/ab67616d0000b2731f675e7b8bae408653346dd9ab67616d0000b273274bf9edfa6d9629e8e9339aab67616d0000b273de0bb7499af4868e93f13c64ab67616d0000b273dfa2e1101d0869637e8178a0", "width": 640}, {"height": 300, "url": "https://mosaic.scdn.co/300/ab67616d0000b2731f675e7b8bae408653346dd9ab67616d0000b273274bf9edfa6d9629e8e9339aab67616d0000b273de0bb7499af4868e93f13c64ab67616d0000b273dfa2e1101d0869637e8178a0", "width": 300}, {"height": 60, "url": "https://mosaic.scdn.co/60/ab67616d0000b2731f675e7b8bae408653346dd9ab67616d0000b273274bf9edfa6d9629e8e9339aab67616d0000b273de0bb7499af4868e93f13c64ab67616d0000b273dfa2e1101d0869637e8178a0", "width": 60}], "name": "fut", "owner": {"display_name": "Aldrich Mangune", "external_urls": {"spotify": "https://open.spotify.com/user/aldrichmangune"}, "href": "https://api.spotify.com/v1/users/aldrichmangune", "id": "aldrichmangune", "type": "user", "uri": "spotify:user:aldrichmangune"}, "primary_color": null, "public": true, "snapshot_id": "MjksNTFkMDc5N2Q5MDg3MDc4YWMyNWFiMzRiY2YzMjEyNGNhZTIwZGZhMQ==", "tracks": {"href": "https://api.spotify.com/v1/playlists/19j28i8jayqpHPR7IPfaQb/tracks", "total": 28}, "type": "playlist", "uri": "spotify:playlist:19j28i8jayqpHPR7IPfaQb"}, {"collaborative": false, "description": "", "external_urls": {"spotify": "https://open.spotify.com/playlist/24WYDSbz57EgJSyCBGG1Mp"}, "href": "https://api.spotify.com/v1/playlists/24WYDSbz57EgJSyCBGG1Mp", "id": "24WYDSbz57EgJSyCBGG1Mp", "images": [{"height": 640, "url": "https://mosaic.scdn.co/640/ab67616d0000b273274bf9edfa6d9629e8e9339aab67616d0000b2734a2beb88b9085fb08a39ac51ab67616d0000b273c442882f510f35569b30fa40ab67616d0000b273e78ca25a967d525711df9cfe", "width": 640}, {"height": 300, "url": "https://mosaic.scdn.co/300/ab67616d0000b273274bf9edfa6d9629e8e9339aab67616d0000b2734a2beb88b9085fb08a39ac51ab67616d0000b273c442882f510f35569b30fa40ab67616d0000b273e78ca25a967d525711df9cfe", "width": 300}, {"height": 60, "url": "https://mosaic.scdn.co/60/ab67616d0000b273274bf9edfa6d9629e8e9339aab67616d0000b2734a2beb88b9085fb08a39ac51ab67616d0000b273c442882f510f35569b30fa40ab67616d0000b273e78ca25a967d525711df9cfe", "width": 60}], "name": "mic", "owner": {"display_name": "Aldrich Mangune", "external_urls": {"spotify": "https://open.spotify.com/user/aldrichmangune"}, "href": "https://api.spotify.com/v1/users/aldrichmangune", "id": "aldrichmangune", "type": "user", "uri": "spotify:user:aldrichmangune"}, "primary_color": null, "public": true, "snapshot_id": "MjcsMzQ3OGUzMjc5NmIzOGU4ODU4NDc3ZTdmMzNiMzU1OTU3OTEwYjM0ZQ==", "tracks": {"href": "https://api.spotify.com/v1/playlists/24WYDSbz57EgJSyCBGG1Mp/tracks", "total": 26}, "type": "playlist", "uri": "spotify:playlist:24WYDSbz57EgJSyCBGG1Mp"}], "limit": 20, "next": "https://api.spotify.com/v1/users/aldrichmangune/playlists?offset=20&limit=20", "offset": 0, "previous": null, "total": 57}